<?xml version="1.0" encoding="UTF-8"?>
<!DOCTYPE suite SYSTEM "http://testng.org/testng-1.0.dtd">
<suite verbose="0" name="Failed suite [com.web.tests.AppTest]">
  <test name="Command line test" preserve-order="false">
    <classes>
      <class name="com.web.tests.AppTest"/>
    </classes>
  </test> <!-- Command line test -->
</suite> <!-- Failed suite [com.web.tests.AppTest] -->
